<svg width="31" height="4" viewBox="0 0 31 4" fill="none" xmlns="http://www.w3.org/2000/svg">
<path d="M29.2869 2.38428L1.85501 2.38428" stroke="white" stroke-width="3" stroke-linecap="round"/>
</svg>
