<svg width="32" height="31" viewBox="0 0 32 31" fill="none" xmlns="http://www.w3.org/2000/svg">
<path d="M15.9499 1.73389V29.1658" stroke="white" stroke-width="3" stroke-linecap="round"/>
<path d="M29.6658 15.4498L2.23395 15.4498" stroke="white" stroke-width="3" stroke-linecap="round"/>
</svg>
